Biostat 203B Homework 5
…
logistic_model = logistic_reg(penalty = tune(), 
                              mixture = tune()) %>%
  set_engine("glmnet", standardize = FALSE)

logistic_workflow = workflow() %>%
  add_recipe(logistic_recipe) %>%
  add_model(logistic_model)

parameter_grid = grid_regular(penalty(range = c(-7, -1)),
                    mixture(), levels = c(50, 5)) %>%
  print()

# A tibble: 250 × 2
       penalty mixture
         <dbl>   <dbl>
 1 0.0000001         0
 2 0.000000133       0
 3 0.000000176       0
 4 0.000000233       0
 5 0.000000309       0
 6 0.000000409       0
 7 0.000000543       0
 8 0.000000720       0
 9 0.000000954       0
10 0.00000126        0
# ℹ 240 more rows
…
